[
  {
    "id": "FR-67"
  },
  {
    "id": "FR-22"
  },
  {
    "id": "FR-06"
  },
  {
    "id": "FR-41"
  },
  {
    "id": "FR-21"
  },
  {
    "id": "FR-74"
  },
  {
    "id": "FR-05"
  },
  {
    "id": "FR-10"
  },
  {
    "id": "FR-66"
  },
  {
    "id": "FR-68"
  },
  {
    "id": "FR-18"
  },
  {
    "id": "FR-40"
  },
  {
    "id": "FR-07"
  },
  {
    "id": "FR-11"
  },
  {
    "id": "FR-04"
  },
  {
    "id": "FR-19"
  },
  {
    "id": "FR-12"
  },
  {
    "id": "FR-64"
  },
  {
    "id": "FR-72"
  },
  {
    "id": "FR-13"
  },
  {
    "id": "FR-01"
  },
  {
    "id": "FR-02"
  },
  {
    "id": "FR-65"
  },
  {
    "id": "FR-09"
  },
  {
    "id": "FR-17"
  },
  {
    "id": "FR-20"
  },
  {
    "id": "FR-14"
  },
  {
    "id": "FR-70"
  },
  {
    "id": "FR-16"
  },
  {
    "id": "FR-03"
  },
  {
    "id": "FR-15"
  },
  {
    "id": "FR-73"
  },
  {
    "id": "FR-08"
  },
  {
    "id": "FR-23"
  },
  {
    "id": "FR-69"
  }
]