[
  {
    "id": "NO-3011"
  },
  {
    "id": "NO-3007"
  },
  {
    "id": "NO-3009"
  },
  {
    "id": "NO-3013"
  },
  {
    "id": "NO-3015"
  },
  {
    "id": "NO-3018"
  },
  {
    "id": "NO-3016"
  },
  {
    "id": "NO-3014"
  },
  {
    "id": "NO-3010"
  },
  {
    "id": "NO-3023"
  },
  {
    "id": "NO-3028"
  },
  {
    "id": "NO-3024"
  },
  {
    "id": "NO-3032"
  },
  {
    "id": "NO-3027"
  },
  {
    "id": "NO-3029"
  },
  {
    "id": "NO-3035"
  },
  {
    "id": "NO-3037"
  },
  {
    "id": "NO-3034"
  },
  {
    "id": "NO-3003"
  },
  {
    "id": "NO-3031"
  },
  {
    "id": "NO-3017"
  },
  {
    "id": "NO-3012"
  },
  {
    "id": "NO-3006"
  },
  {
    "id": "NO-3022"
  }
]