[
  {
    "id": "PL-01",
    "elevation": "low_high",
    "elevation line_visualization": 0
  },
  {
    "id": "PL-02",
    "elevation": "low_high",
    "elevation line_visualization": 0
  },
  {
    "id": "PL-03",
    "elevation": "low_high",
    "elevation line_visualization": 0
  }
]