[
  {
    "id": "SI2",
    "elevation": "high",
    "threshold": null,
    "elevation line_visualization": 1400
  },
  {
    "id": "SI3",
    "elevation": "high",
    "threshold": null,
    "elevation line_visualization": 1400
  },
  {
    "id": "SI4",
    "elevation": "high",
    "threshold": null,
    "elevation line_visualization": 1400
  },
  {
    "id": "SI4",
    "elevation": "low",
    "threshold": null,
    "elevation line_visualization": 1400
  },
  {
    "id": "SI3",
    "elevation": "low",
    "threshold": null,
    "elevation line_visualization": 1400
  },
  {
    "id": "SI2",
    "elevation": "low",
    "threshold": null,
    "elevation line_visualization": 1400
  }
]